{
  "file_generated_by": "FlutterFire CLI",
  "purpose": "FirebaseAppID & ProjectID for this Firebase app in this directory",
  "GOOGLE_APP_ID": "1:1010520975087:ios:8880025f11d621a2421d1a",
  "FIREBASE_PROJECT_ID": "prakflutterfirebase-f8bf7",
  "GCM_SENDER_ID": "1010520975087"
}