{
  "project_info": {
    "project_number": "1010520975087",
    "project_id": "prakflutterfirebase-f8bf7",
    "storage_bucket": "prakflutterfirebase-f8bf7.appspot.com"
  },
  "client": [
    {
      "client_info": {
        "mobilesdk_app_id": "1:1010520975087:android:3b46cefdd0fa4e97421d1a",
        "android_client_info": {
          "package_name": "com.example.praktikum6"
        }
      },
      "oauth_client": [
        {
          "client_id": "1010520975087-bn48bs4d5tmudkpjpjqur9etcrjq1e6c.apps.googleusercontent.com",
          "client_type": 1,
          "android_info": {
            "package_name": "com.example.praktikum6",
            "certificate_hash": "fe2edd01d164cdafdea835fbd558443daf5dd03d"
          }
        },
        {
          "client_id": "1010520975087-7vvmia98e22g6rpf9agn58t282omdgmn.apps.googleusercontent.com",
          "client_type": 3
        }
      ],
      "api_key": [
        {
          "current_key": "AIzaSyBsst8ndloliKlV1wvFmzxWzT1i9z8cZR8"
        }
      ],
      "services": {
        "appinvite_service": {
          "other_platform_oauth_client": [
            {
              "client_id": "1010520975087-7vvmia98e22g6rpf9agn58t282omdgmn.apps.googleusercontent.com",
              "client_type": 3
            },
            {
              "client_id": "1010520975087-jh8p0m04rq6mdoa3074ser2ablf48nlh.apps.googleusercontent.com",
              "client_type": 2,
              "ios_info": {
                "bundle_id": "com.example.praktikum6"
              }
            }
          ]
        }
      }
    }
  ],
  "configuration_version": "1"
}